{
    "data": [
        {
            "x": [
                1573995600000,
                1573996500000,
                1573997400000,
                1573998300000,
                1573999200000,
                1574000100000,
                1574001000000,
                1574001900000,
                1574002800000,
                1574003700000,
                1574004600000,
                1574005500000,
                1574006400000,
                1574007300000,
                1574008200000,
                1574009100000,
                1574010000000,
                1574010900000,
                1574011800000,
                1574012700000,
                1574013600000,
                1574014500000,
                1574015400000,
                1574016300000,
                1574017200000,
                1574018100000,
                1574019000000,
                1574019900000,
                1574020800000,
                1574021700000,
                1574022600000,
                1574023500000,
                1574024400000,
                1574025300000,
                1574026200000,
                1574027100000,
                1574028000000,
                1574028900000,
                1574029800000,
                1574030700000,
                1574031600000,
                1574032500000,
                1574033400000,
                1574034300000,
                1574035200000,
                1574036100000,
                1574037000000,
                1574037900000,
                1574038800000,
                1574039700000,
                1574040600000,
                1574041500000,
                1574042400000,
                1574043300000,
                1574044200000,
                1574045100000,
                1574046000000,
                1574046900000,
                1574047800000,
                1574048700000,
                1574049600000,
                1574050500000,
                1574051400000,
                1574052300000,
                1574053200000,
                1574054100000,
                1574055000000,
                1574055900000,
                1574056800000,
                1574057700000,
                1574058600000,
                1574059500000,
                1574060400000,
                1574061300000,
                1574062200000,
                1574063100000,
                1574064000000,
                1574064900000,
                1574065800000,
                1574066700000,
                1574067600000,
                1574068500000,
                1574069400000,
                1574070300000,
                1574071200000,
                1574072100000,
                1574073000000,
                1574073900000,
                1574074800000,
                1574075700000,
                1574076600000,
                1574077500000,
                1574078400000,
                1574079300000,
                1574080200000,
                1574081100000,
                1574082000000,
                1574082900000,
                1574083800000,
                1574084700000
            ],
            "y": [
                0,
                10296,
                10268,
                10284,
                0,
                0,
                0,
                0,
                0,
                0,
                0,
                0,
                0,
                0,
                10276,
                10244,
                0,
                0,
                0,
                10258,
                10253,
                10256,
                10250,
                10245,
                10232,
                10247,
                10249,
                10239,
                10250,
                10271,
                10243,
                10247,
                10231,
                10247,
                10257,
                10244,
                10256,
                10246,
                0,
                10246,
                10235,
                10228,
                10253,
                10230,
                10249,
                10253,
                10262,
                10265,
                10267,
                10244,
                10259,
                10246,
                10265,
                10253,
                10255,
                10252,
                10261,
                10271,
                10262,
                10252,
                10232,
                10240,
                10233,
                10261,
                10264,
                10244,
                10246,
                10227,
                10244,
                10234,
                4726,
                6858,
                10237,
                2208,
                1888,
                3703,
                4985,
                9246,
                10229,
                10246,
                10226,
                5504,
                4699,
                10227,
                8610,
                7008,
                10244,
                10235,
                5336,
                4379,
                10286,
                10256,
                7495,
                6320,
                7500,
                9159,
                10264,
                10279,
                1084,
                300
            ],
            "mode": "lines",
            "name": "ecg"
        },
        {
            "x": [
                1573995600000,
                1573996500000,
                1573997400000,
                1573998300000,
                1573999200000,
                1574000100000,
                1574001000000,
                1574001900000,
                1574002800000,
                1574003700000,
                1574004600000,
                1574005500000,
                1574006400000,
                1574007300000,
                1574008200000,
                1574009100000,
                1574010000000,
                1574010900000,
                1574011800000,
                1574012700000,
                1574013600000,
                1574014500000,
                1574015400000,
                1574016300000,
                1574017200000,
                1574018100000,
                1574019000000,
                1574019900000,
                1574020800000,
                1574021700000,
                1574022600000,
                1574023500000,
                1574024400000,
                1574025300000,
                1574026200000,
                1574027100000,
                1574028000000,
                1574028900000,
                1574029800000,
                1574030700000,
                1574031600000,
                1574032500000,
                1574033400000,
                1574034300000,
                1574035200000,
                1574036100000,
                1574037000000,
                1574037900000,
                1574038800000,
                1574039700000,
                1574040600000,
                1574041500000,
                1574042400000,
                1574043300000,
                1574044200000,
                1574045100000,
                1574046000000,
                1574046900000,
                1574047800000,
                1574048700000,
                1574049600000,
                1574050500000,
                1574051400000,
                1574052300000,
                1574053200000,
                1574054100000,
                1574055000000,
                1574055900000,
                1574056800000,
                1574057700000,
                1574058600000,
                1574059500000,
                1574060400000,
                1574061300000,
                1574062200000,
                1574063100000,
                1574064000000,
                1574064900000,
                1574065800000,
                1574066700000,
                1574067600000,
                1574068500000,
                1574069400000,
                1574070300000,
                1574071200000,
                1574072100000,
                1574073000000,
                1574073900000,
                1574074800000,
                1574075700000,
                1574076600000,
                1574077500000,
                1574078400000,
                1574079300000,
                1574080200000,
                1574081100000,
                1574082000000,
                1574082900000,
                1574083800000,
                1574084700000
            ],
            "y": [
                239,
                0,
                106,
                355,
                0,
                0,
                0,
                0,
                0,
                0,
                0,
                0,
                0,
                0,
                0,
                171,
                0,
                0,
                0,
                199,
                586,
                702,
                745,
                900,
                840,
                840,
                840,
                780,
                841,
                777,
                659,
                779,
                780,
                779,
                682,
                900,
                900,
                559,
                0,
                194,
                708,
                270,
                670,
                780,
                782,
                844,
                772,
                840,
                900,
                718,
                840,
                840,
                900,
                778,
                900,
                780,
                719,
                840,
                840,
                839,
                842,
                837,
                789,
                890,
                598,
                772,
                821,
                796,
                720,
                392,
                31,
                76,
                290,
                54,
                22,
                42,
                41,
                26,
                34,
                0,
                28,
                36,
                39,
                9,
                26,
                35,
                21,
                20,
                29,
                28,
                0,
                7,
                15,
                16,
                38,
                21,
                6,
                0,
                0,
                2
            ],
            "mode": "lines",
            "name": "activity"
        },
        {
            "x": [
                1573995600000,
                1573996500000,
                1573997400000,
                1573998300000,
                1573999200000,
                1574000100000,
                1574001000000,
                1574001900000,
                1574002800000,
                1574003700000,
                1574004600000,
                1574005500000,
                1574006400000,
                1574007300000,
                1574008200000,
                1574009100000,
                1574010000000,
                1574010900000,
                1574011800000,
                1574012700000,
                1574013600000,
                1574014500000,
                1574015400000,
                1574016300000,
                1574017200000,
                1574018100000,
                1574019000000,
                1574019900000,
                1574020800000,
                1574021700000,
                1574022600000,
                1574023500000,
                1574024400000,
                1574025300000,
                1574026200000,
                1574027100000,
                1574028000000,
                1574028900000,
                1574029800000,
                1574030700000,
                1574031600000,
                1574032500000,
                1574033400000,
                1574034300000,
                1574035200000,
                1574036100000,
                1574037000000,
                1574037900000,
                1574038800000,
                1574039700000,
                1574040600000,
                1574041500000,
                1574042400000,
                1574043300000,
                1574044200000,
                1574045100000,
                1574046000000,
                1574046900000,
                1574047800000,
                1574048700000,
                1574049600000,
                1574050500000,
                1574051400000,
                1574052300000,
                1574053200000,
                1574054100000,
                1574055000000,
                1574055900000,
                1574056800000,
                1574057700000,
                1574058600000,
                1574059500000,
                1574060400000,
                1574061300000,
                1574062200000,
                1574063100000,
                1574064000000,
                1574064900000,
                1574065800000,
                1574066700000,
                1574067600000,
                1574068500000,
                1574069400000,
                1574070300000,
                1574071200000,
                1574072100000,
                1574073000000,
                1574073900000,
                1574074800000,
                1574075700000,
                1574076600000,
                1574077500000,
                1574078400000,
                1574079300000,
                1574080200000,
                1574081100000,
                1574082000000,
                1574082900000,
                1574083800000,
                1574084700000
            ],
            "y": [
                60,
                0,
                26,
                90,
                0,
                0,
                0,
                0,
                0,
                0,
                0,
                0,
                0,
                0,
                0,
                43,
                0,
                0,
                0,
                50,
                147,
                176,
                186,
                225,
                210,
                210,
                210,
                195,
                211,
                194,
                165,
                195,
                195,
                195,
                171,
                225,
                225,
                140,
                0,
                48,
                177,
                67,
                167,
                195,
                196,
                211,
                192,
                210,
                225,
                180,
                210,
                210,
                225,
                194,
                225,
                195,
                180,
                210,
                210,
                210,
                210,
                209,
                198,
                222,
                149,
                194,
                206,
                199,
                180,
                98,
                8,
                20,
                76,
                14,
                5,
                9,
                10,
                5,
                7,
                0,
                8,
                11,
                10,
                1,
                8,
                9,
                5,
                5,
                9,
                6,
                0,
                1,
                1,
                2,
                9,
                3,
                0,
                0,
                0,
                0
            ],
            "mode": "lines",
            "name": "heartRate"
        },
        {
            "x": [
                1573995600000,
                1573996500000,
                1573997400000,
                1573998300000,
                1573999200000,
                1574000100000,
                1574001000000,
                1574001900000,
                1574002800000,
                1574003700000,
                1574004600000,
                1574005500000,
                1574006400000,
                1574007300000,
                1574008200000,
                1574009100000,
                1574010000000,
                1574010900000,
                1574011800000,
                1574012700000,
                1574013600000,
                1574014500000,
                1574015400000,
                1574016300000,
                1574017200000,
                1574018100000,
                1574019000000,
                1574019900000,
                1574020800000,
                1574021700000,
                1574022600000,
                1574023500000,
                1574024400000,
                1574025300000,
                1574026200000,
                1574027100000,
                1574028000000,
                1574028900000,
                1574029800000,
                1574030700000,
                1574031600000,
                1574032500000,
                1574033400000,
                1574034300000,
                1574035200000,
                1574036100000,
                1574037000000,
                1574037900000,
                1574038800000,
                1574039700000,
                1574040600000,
                1574041500000,
                1574042400000,
                1574043300000,
                1574044200000,
                1574045100000,
                1574046000000,
                1574046900000,
                1574047800000,
                1574048700000,
                1574049600000,
                1574050500000,
                1574051400000,
                1574052300000,
                1574053200000,
                1574054100000,
                1574055000000,
                1574055900000,
                1574056800000,
                1574057700000,
                1574058600000,
                1574059500000,
                1574060400000,
                1574061300000,
                1574062200000,
                1574063100000,
                1574064000000,
                1574064900000,
                1574065800000,
                1574066700000,
                1574067600000,
                1574068500000,
                1574069400000,
                1574070300000,
                1574071200000,
                1574072100000,
                1574073000000,
                1574073900000,
                1574074800000,
                1574075700000,
                1574076600000,
                1574077500000,
                1574078400000,
                1574079300000,
                1574080200000,
                1574081100000,
                1574082000000,
                1574082900000,
                1574083800000,
                1574084700000
            ],
            "y": [
                60,
                0,
                26,
                90,
                0,
                0,
                0,
                0,
                0,
                0,
                0,
                0,
                0,
                0,
                0,
                43,
                0,
                0,
                0,
                50,
                147,
                176,
                186,
                225,
                210,
                210,
                210,
                195,
                211,
                194,
                165,
                195,
                195,
                195,
                171,
                225,
                225,
                140,
                0,
                48,
                177,
                67,
                167,
                195,
                196,
                211,
                192,
                210,
                225,
                180,
                210,
                210,
                225,
                194,
                225,
                195,
                180,
                210,
                210,
                210,
                210,
                209,
                198,
                222,
                149,
                194,
                206,
                199,
                180,
                98,
                8,
                20,
                76,
                14,
                5,
                9,
                10,
                5,
                7,
                0,
                8,
                11,
                10,
                1,
                8,
                9,
                5,
                5,
                9,
                6,
                0,
                1,
                1,
                2,
                9,
                3,
                0,
                0,
                0,
                0
            ],
            "mode": "lines",
            "name": "respirationRate"
        },
        {
            "x": [
                1573995600000,
                1573996500000,
                1573997400000,
                1573998300000,
                1573999200000,
                1574000100000,
                1574001000000,
                1574001900000,
                1574002800000,
                1574003700000,
                1574004600000,
                1574005500000,
                1574006400000,
                1574007300000,
                1574008200000,
                1574009100000,
                1574010000000,
                1574010900000,
                1574011800000,
                1574012700000,
                1574013600000,
                1574014500000,
                1574015400000,
                1574016300000,
                1574017200000,
                1574018100000,
                1574019000000,
                1574019900000,
                1574020800000,
                1574021700000,
                1574022600000,
                1574023500000,
                1574024400000,
                1574025300000,
                1574026200000,
                1574027100000,
                1574028000000,
                1574028900000,
                1574029800000,
                1574030700000,
                1574031600000,
                1574032500000,
                1574033400000,
                1574034300000,
                1574035200000,
                1574036100000,
                1574037000000,
                1574037900000,
                1574038800000,
                1574039700000,
                1574040600000,
                1574041500000,
                1574042400000,
                1574043300000,
                1574044200000,
                1574045100000,
                1574046000000,
                1574046900000,
                1574047800000,
                1574048700000,
                1574049600000,
                1574050500000,
                1574051400000,
                1574052300000,
                1574053200000,
                1574054100000,
                1574055000000,
                1574055900000,
                1574056800000,
                1574057700000,
                1574058600000,
                1574059500000,
                1574060400000,
                1574061300000,
                1574062200000,
                1574063100000,
                1574064000000,
                1574064900000,
                1574065800000,
                1574066700000,
                1574067600000,
                1574068500000,
                1574069400000,
                1574070300000,
                1574071200000,
                1574072100000,
                1574073000000,
                1574073900000,
                1574074800000,
                1574075700000,
                1574076600000,
                1574077500000,
                1574078400000,
                1574079300000,
                1574080200000,
                1574081100000,
                1574082000000,
                1574082900000,
                1574083800000,
                1574084700000
            ],
            "y": [
                221,
                0,
                97,
                316,
                0,
                0,
                0,
                0,
                0,
                0,
                0,
                0,
                0,
                0,
                0,
                295,
                0,
                0,
                0,
                239,
                954,
                979,
                1008,
                1166,
                1023,
                1020,
                1015,
                913,
                950,
                873,
                754,
                889,
                858,
                813,
                736,
                1090,
                1064,
                722,
                0,
                267,
                872,
                314,
                766,
                892,
                872,
                936,
                831,
                875,
                956,
                767,
                879,
                944,
                970,
                863,
                918,
                927,
                1019,
                939,
                957,
                991,
                1055,
                1044,
                898,
                970,
                586,
                804,
                819,
                782,
                670,
                354,
                33,
                87,
                317,
                51,
                23,
                46,
                36,
                25,
                27,
                0,
                21,
                29,
                33,
                7,
                28,
                37,
                20,
                17,
                29,
                23,
                0,
                6,
                17,
                15,
                38,
                17,
                4,
                0,
                0,
                2
            ],
            "mode": "lines",
            "name": "rri"
        },
        {
            "x": [
                1573995600000,
                1573996500000,
                1573997400000,
                1573998300000,
                1573999200000,
                1574000100000,
                1574001000000,
                1574001900000,
                1574002800000,
                1574003700000,
                1574004600000,
                1574005500000,
                1574006400000,
                1574007300000,
                1574008200000,
                1574009100000,
                1574010000000,
                1574010900000,
                1574011800000,
                1574012700000,
                1574013600000,
                1574014500000,
                1574015400000,
                1574016300000,
                1574017200000,
                1574018100000,
                1574019000000,
                1574019900000,
                1574020800000,
                1574021700000,
                1574022600000,
                1574023500000,
                1574024400000,
                1574025300000,
                1574026200000,
                1574027100000,
                1574028000000,
                1574028900000,
                1574029800000,
                1574030700000,
                1574031600000,
                1574032500000,
                1574033400000,
                1574034300000,
                1574035200000,
                1574036100000,
                1574037000000,
                1574037900000,
                1574038800000,
                1574039700000,
                1574040600000,
                1574041500000,
                1574042400000,
                1574043300000,
                1574044200000,
                1574045100000,
                1574046000000,
                1574046900000,
                1574047800000,
                1574048700000,
                1574049600000,
                1574050500000,
                1574051400000,
                1574052300000,
                1574053200000,
                1574054100000,
                1574055000000,
                1574055900000,
                1574056800000,
                1574057700000,
                1574058600000,
                1574059500000,
                1574060400000,
                1574061300000,
                1574062200000,
                1574063100000,
                1574064000000,
                1574064900000,
                1574065800000,
                1574066700000,
                1574067600000,
                1574068500000,
                1574069400000,
                1574070300000,
                1574071200000,
                1574072100000,
                1574073000000,
                1574073900000,
                1574074800000,
                1574075700000,
                1574076600000,
                1574077500000,
                1574078400000,
                1574079300000,
                1574080200000,
                1574081100000,
                1574082000000,
                1574082900000,
                1574083800000,
                1574084700000
            ],
            "y": [
                60,
                0,
                26,
                90,
                0,
                0,
                0,
                0,
                0,
                0,
                0,
                0,
                0,
                0,
                0,
                43,
                0,
                0,
                0,
                50,
                147,
                176,
                186,
                225,
                210,
                210,
                210,
                195,
                211,
                194,
                165,
                195,
                195,
                195,
                171,
                225,
                225,
                140,
                0,
                48,
                177,
                67,
                167,
                195,
                196,
                211,
                192,
                210,
                225,
                180,
                210,
                210,
                225,
                194,
                225,
                195,
                180,
                210,
                210,
                210,
                210,
                209,
                198,
                222,
                149,
                194,
                206,
                199,
                180,
                98,
                8,
                20,
                76,
                14,
                5,
                9,
                10,
                5,
                7,
                0,
                8,
                11,
                10,
                1,
                8,
                9,
                5,
                5,
                9,
                6,
                0,
                1,
                1,
                2,
                9,
                3,
                0,
                0,
                0,
                0
            ],
            "mode": "lines",
            "name": "skinTemp"
        }
    ],
    "to": 1574084700000,
    "from": 1573994700000,
    "dataPoints": 100,
    "timeInterval": 900000,
    "type": "realtime"
}